"c4782844-0a1b-4b34-9594-48de776629f8","47c2f769-cd2b-4910-b3c5-06f075a11577","c183f10d-f55d-43ee-8f25-6e6f7a59a3e5","Imported",NULL,NULL,NULL,"tbl_emp",NULL,NULL,"1","2020-01-16 11:28:20"
"f0c37780-c571-4d2f-a8cf-098934cfce3a","46ec6a30-8ebf-41e8-8303-1a7618b332cf","c183f10d-f55d-43ee-8f25-6e6f7a59a3e5","Imported",NULL,NULL,NULL,"tbl_emp",NULL,NULL,"1","2020-01-16 11:28:20"
"07ed0beb-b0f7-40cc-83eb-d09f34c9e7dd","78b036d1-7900-472d-b2f1-1f655827426f","c183f10d-f55d-43ee-8f25-6e6f7a59a3e5","Imported",NULL,NULL,NULL,"tbl_emp",NULL,NULL,"1","2020-01-16 11:28:20"
"50419bcc-66ed-4517-9c1d-972f1bcb376c","02d97739-836c-4eef-b317-2d13c7b25937","c183f10d-f55d-43ee-8f25-6e6f7a59a3e5","Imported",NULL,NULL,NULL,"tbl_emp",NULL,NULL,"1","2020-01-16 11:28:20"
"e4e6dfc3-8861-4f7a-af31-5a31fea7fd27","700f1792-8b9c-474b-9c21-35220c9281b1","c183f10d-f55d-43ee-8f25-6e6f7a59a3e5","Imported",NULL,NULL,NULL,"tbl_emp",NULL,NULL,"1","2020-01-16 11:28:20"
"865b7f8d-aa95-4102-a374-b53ad2f35ef0","7c986aea-0728-4324-88bf-3e94cbd43295","c183f10d-f55d-43ee-8f25-6e6f7a59a3e5","Imported",NULL,NULL,NULL,"tbl_emp",NULL,NULL,"1","2020-01-16 11:28:20"
"32111e17-710b-43c7-8964-b3eab1bd6e04","d0e5226f-c3eb-4a08-8b01-41300298234a","c183f10d-f55d-43ee-8f25-6e6f7a59a3e5","Imported",NULL,NULL,NULL,"tbl_emp",NULL,NULL,"1","2020-01-16 11:28:20"
"415270ed-1de4-4f0f-87fe-5883c976315e","125f07ee-2c9e-44fb-b341-41664d2962e4","c183f10d-f55d-43ee-8f25-6e6f7a59a3e5","Imported",NULL,NULL,NULL,"tbl_emp",NULL,NULL,"1","2020-01-16 11:28:20"
"52b9baf9-bb30-4f8a-b904-43592f454d6e","71917ae2-fcd6-4722-9214-53e0584a9935","c183f10d-f55d-43ee-8f25-6e6f7a59a3e5","Imported",NULL,NULL,NULL,"tbl_emp",NULL,NULL,"1","2020-01-16 11:28:20"
"f5b8e92c-1278-401b-ae55-8c78c8eaea6d","8b30339d-91f6-4052-b94f-5e748b45d774","c183f10d-f55d-43ee-8f25-6e6f7a59a3e5","Imported",NULL,NULL,NULL,"tbl_emp",NULL,NULL,"1","2020-01-16 11:28:20"
"c3ecfca4-2a67-403e-9815-cb14c3e53b50","2b787ea1-069d-4681-bab8-63da06d722a6","c183f10d-f55d-43ee-8f25-6e6f7a59a3e5","Imported",NULL,NULL,NULL,"tbl_emp",NULL,NULL,"1","2020-01-16 11:28:20"
"d2c35e87-e68c-4b89-950d-667899652b8f","8af74634-367e-490e-89d9-6953e031a68c","c183f10d-f55d-43ee-8f25-6e6f7a59a3e5","Imported",NULL,NULL,NULL,"tbl_emp",NULL,NULL,"1","2020-01-16 11:28:20"
"d7aa4552-751c-4a0a-b9e6-31460ad69453","f1e973cc-e9d3-4185-8a20-84501d090d1c","c183f10d-f55d-43ee-8f25-6e6f7a59a3e5","Imported",NULL,NULL,NULL,"tbl_emp",NULL,NULL,"1","2020-01-16 11:28:20"
"2d7316f5-2513-4a48-b823-12a78e9a0c3f","8c070dc2-17a1-43eb-a6d1-880da3616bc2","c183f10d-f55d-43ee-8f25-6e6f7a59a3e5","Imported",NULL,NULL,NULL,"tbl_emp",NULL,NULL,"1","2020-01-16 11:28:20"
"d6d121ab-c9e8-4930-82a5-77b40f3495e2","efa23c44-4047-437f-b870-8953b798cc02","c183f10d-f55d-43ee-8f25-6e6f7a59a3e5","Imported",NULL,NULL,NULL,"tbl_emp",NULL,NULL,"1","2020-01-16 11:28:20"
"11fc730f-6ceb-4076-8796-997eea35c2eb","0737cd30-02ae-4d10-9b45-8fec4b1b5459","c183f10d-f55d-43ee-8f25-6e6f7a59a3e5","Imported",NULL,NULL,NULL,"tbl_emp",NULL,NULL,"1","2020-01-16 11:28:20"
"193dc363-55ca-4428-a7d4-19d5d8986430","93b263e0-0e23-4df7-992e-94472702a197","c183f10d-f55d-43ee-8f25-6e6f7a59a3e5","Imported",NULL,NULL,NULL,"tbl_emp",NULL,NULL,"1","2020-01-16 11:28:20"
"61839dfa-8e3f-40ac-88e4-9a73939a20a9","a1333bfb-ef37-46f8-8a75-9717885b3577","c183f10d-f55d-43ee-8f25-6e6f7a59a3e5","Imported",NULL,NULL,NULL,"tbl_emp",NULL,NULL,"1","2020-01-16 11:28:20"
"7ae12beb-c411-4871-b798-c426ab83733a","196a8ec7-9bc5-48bd-8324-aa2c3017625d","c183f10d-f55d-43ee-8f25-6e6f7a59a3e5","Imported",NULL,NULL,NULL,"tbl_emp",NULL,NULL,"1","2020-01-16 11:28:20"
"43f93ef0-7526-4f62-9774-ede8e5183d34","9dcc6f0d-0b6d-41ea-b22a-ae2a62d6251d","c183f10d-f55d-43ee-8f25-6e6f7a59a3e5","Imported",NULL,NULL,NULL,"tbl_emp",NULL,NULL,"1","2020-01-16 11:28:20"
"938fa0a9-8871-4722-8c72-71b561205514","e68021fc-ff2b-48b8-a4cb-af4361b678e3","c183f10d-f55d-43ee-8f25-6e6f7a59a3e5","Imported",NULL,NULL,NULL,"tbl_emp",NULL,NULL,"1","2020-01-16 11:28:20"
"6b9214f5-016f-4ca3-b26e-4d10da6f1ea3","f7cd8adf-9e21-4989-83c1-ced6609c0eee","c183f10d-f55d-43ee-8f25-6e6f7a59a3e5","Imported",NULL,NULL,NULL,"tbl_emp",NULL,NULL,"1","2020-01-16 11:28:20"
"dc699866-a8e9-492a-8e31-ccf7c6e4e4b9","d05d2c71-1a4f-46ac-815c-d348d87c196b","c183f10d-f55d-43ee-8f25-6e6f7a59a3e5","Imported",NULL,NULL,NULL,"tbl_emp",NULL,NULL,"1","2020-01-16 11:28:20"
"1d558952-441d-4c18-ae42-eb42f16e1b5a","bb32e329-e29e-4901-9504-df48be23b475","c183f10d-f55d-43ee-8f25-6e6f7a59a3e5","Imported",NULL,NULL,NULL,"tbl_emp",NULL,NULL,"1","2020-01-16 11:28:20"
"0b352cfa-d36a-4f50-9e22-cb9f3de08f9c","fcf0e8f3-1573-4be0-a3fa-e1c715f3767c","c183f10d-f55d-43ee-8f25-6e6f7a59a3e5","Imported",NULL,NULL,NULL,"tbl_emp",NULL,NULL,"1","2020-01-16 11:28:20"
"60f7c6cc-da0b-4b78-ac3d-07c6c5e180ca","9348ee2a-26f2-45a9-8dea-eb656eb30c81","c183f10d-f55d-43ee-8f25-6e6f7a59a3e5","Imported",NULL,NULL,NULL,"tbl_emp",NULL,NULL,"1","2020-01-16 11:28:20"
"845d0f62-828c-4246-9ba1-b5365799e0ac","704afe11-55a7-4f3e-bf4e-f5e74fd96cfb","c183f10d-f55d-43ee-8f25-6e6f7a59a3e5","Imported",NULL,NULL,NULL,"tbl_emp",NULL,NULL,"1","2020-01-16 11:28:20"
"f607863d-926b-48df-a34a-e28988edbc82","6f616a8c-c011-404c-bcb9-f62cf4095944","c183f10d-f55d-43ee-8f25-6e6f7a59a3e5","Imported",NULL,NULL,NULL,"tbl_emp",NULL,NULL,"1","2020-01-16 11:28:20"
"335d2d71-885f-41f0-9c98-fd0690921aa2","e1ecca0c-8439-4a2a-9018-fa454e44705a","c183f10d-f55d-43ee-8f25-6e6f7a59a3e5","Imported",NULL,NULL,NULL,"tbl_emp",NULL,NULL,"1","2020-01-16 11:28:20"
"78daa317-97aa-46d6-a556-0406d4b4492a","0f9b2936-f1cb-4630-b4ca-0dceb7d03b02","c183f10d-f55d-43ee-8f25-6e6f7a59a3e5","Imported",NULL,NULL,NULL,"tbl_grp_emp",NULL,NULL,"1","2020-01-16 11:28:20"
"bca35b07-6bbf-4aad-8acc-949539664975","31aaa77b-0783-4d19-bc4a-1e9ed9e009d6","c183f10d-f55d-43ee-8f25-6e6f7a59a3e5","Imported",NULL,NULL,NULL,"tbl_grp_emp",NULL,NULL,"1","2020-01-16 11:28:20"
"4cfe8c60-e7bd-4f53-8d5d-3bdd66cdb512","1ed1a84b-784c-4d8c-b76a-3132e49833d7","c183f10d-f55d-43ee-8f25-6e6f7a59a3e5","Imported",NULL,NULL,NULL,"tbl_grp_emp",NULL,NULL,"1","2020-01-16 11:28:20"
"0202cbb3-9889-4b17-89ab-fa4da5989af6","59c23ffc-dba4-45d1-9f5f-7574fa517903","c183f10d-f55d-43ee-8f25-6e6f7a59a3e5","Imported",NULL,NULL,NULL,"tbl_grp_emp",NULL,NULL,"1","2020-01-16 11:28:20"
"a62f9845-3970-443f-af55-7eee894db459","c27533e6-e87f-4e1c-aabc-8faf77428f40","c183f10d-f55d-43ee-8f25-6e6f7a59a3e5","Imported",NULL,NULL,NULL,"tbl_grp_emp",NULL,NULL,"1","2020-01-16 11:28:20"
"a29eec16-4514-41ce-86f7-1e2a4b5f936f","b58e0596-0eaf-42bc-8dc3-9d17874ebd1a","c183f10d-f55d-43ee-8f25-6e6f7a59a3e5","Imported",NULL,NULL,NULL,"tbl_grp_emp",NULL,NULL,"1","2020-01-16 11:28:20"
"177b804c-a05b-4a2b-a16f-7a836fa17dfb","d19e10ab-d041-400e-bcc9-f4d76a4be625","c183f10d-f55d-43ee-8f25-6e6f7a59a3e5","Imported",NULL,NULL,NULL,"tbl_grp_emp",NULL,NULL,"1","2020-01-16 11:28:20"
"05737489-2711-42c0-beaa-b6fc5d61c823","5227b272-efd8-4664-b116-870db896af98","c183f10d-f55d-43ee-8f25-6e6f7a59a3e5","Imported",NULL,NULL,NULL,"tbl_device",NULL,NULL,"1","2020-01-16 11:28:20"
"2b1c1965-d8c6-4b7f-8ee9-72163efd78e8","ed2e7c0e-81f3-49ed-b873-d322cca09f46","c183f10d-f55d-43ee-8f25-6e6f7a59a3e5","Imported",NULL,NULL,NULL,"tbl_otr",NULL,NULL,"1","2020-01-16 11:28:20"
